accountsservice 23.13.9-1
acpi 1.7-3
adobe-source-han-sans-cn-fonts 2.004-1
adobe-source-han-sans-jp-fonts 2.004-1
adobe-source-han-sans-kr-fonts 2.004-1
alacritty 0.12.1-1
alsa-firmware 1.2.4-3
alsa-plugins 1:1.2.7.1-2
alsa-utils 1.2.9-1
amsynth 1.13.2-1
android-tools 34.0.1-1
arandr 0.1.11-2
arc-gtk-theme-eos 20221218-1
autoconf 2.71-4
automake 1.16.5-2
b43-fwcutter 019-4
baobab 44.0-1
base 3-1
bash-completion 2.11-3
bind 9.18.15-1
binutils 2.40-6
bison 3.8.2-5
blueberry 1.4.8-1
blueman 2.3.5-2
btop 1.2.13-1
btrfs-progs 6.3-2
caja 1.26.1-1
caja-image-converter 1.26.1-2
caja-open-terminal 1.26.1-2
caja-sendto 1.26.1-2
caja-share 1.26.1-2
caja-wallpaper 1.26.1-2
caja-xattr-tags 1.26.1-2
calc 2.14.1.5-1
capitaine-cursors 4-2
cheese 44.0.1-1
cliphist 1:0.4.0-2
cups 1:2.4.2-7
cups-pdf 3.0.1-7
dhclient 4.4.3.P1-2
dialog 1:1.3_20230209-1
diff-so-fancy 1.4.3-1
diffutils 3.10-1
direnv 2.32.3-1
discord 0.0.27-1
dmenu 5.2-1
dnsmasq 2.89-1
docker 1:24.0.2-1
docker-compose 2.18.1-1
dopewars 1.6.2-2
dosbox 0.74.3-2
dotnet-runtime 7.0.5.sdk105-1
dotnet-sdk 7.0.5.sdk105-1
downgrade 11.3.0-1
dunst 1.9.2-1
efibootmgr 18-2
elixir 1.14.0-1
endeavouros-keyring 20230523-1
endeavouros-mirrorlist 23.4-1
endeavouros-theming 22.12.3.3-2
endeavouros-xfce4-terminal-colors 5-1
engrampa 1.26.1-1
eog 44.2-1
eom 1.26.0-1
eos-hooks 1.13-1
eos-log-tool 23-1
eos-update-notifier 23-5
epiphany 44.3-1
ethtool 1:6.3-1
evince 44.1-1
exo 4.18.0-1
f2fs-tools 1.16.0-2
fakeroot 1.31-2
feh 3.10-1
ffmpegthumbnailer 2.2.2-5
file-roller 43.0-2
fish 3.6.1-1
flex 2.6.4-5
foomatic-db 3:20230402-1
foomatic-db-engine 4:20220521-1
foomatic-db-gutenprint-ppds 5.3.4-2
foomatic-db-nonfree 3:20230402-1
foomatic-db-nonfree-ppds 3:20230402-1
foomatic-db-ppds 3:20230402-1
foot 1.14.0-1
fprintd 1.94.2-1
fuzzel 1.9.1-1
fwupd 1.9.1-1
galculator 2.1.4-8
garcon 4.18.1-1
gcc 13.1.1-1
gdm 44.1-1
gedit 44.2-2
ghostwriter 23.04.1-1
gimp 2.10.34-2
glances 3.4.0.3-1
gnome-backgrounds 44.0-1
gnome-boxes 44.2-1
gnome-calculator 44.0-1
gnome-calendar 44.1-1
gnome-characters 44.0-1
gnome-clocks 44.0-1
gnome-color-manager 3.36.0+r42+g90481514-1
gnome-contacts 44.0-1
gnome-control-center 44.2-1
gnome-disk-utility 44.0-1
gnome-firmware 43.2-1
gnome-font-viewer 44.0-1
gnome-keyring 1:42.1-2
gnome-logs 43.0-1
gnome-maps 44.2-1
gnome-menus 3.36.0-2
gnome-music 1:44.0-2
gnome-photos 1:44.0-3
gnome-remote-desktop 44.2-1
gnome-session 44.0-1
gnome-settings-daemon 44.1-1
gnome-shell 1:44.1-3
gnome-shell-extensions 44.0-1
gnome-software 44.2-1
gnome-system-monitor 44.0-1
gnome-terminal 3.48.1-1
gnome-user-share 43.0-1
gnome-video-effects 1:0.5.0+r18+g5f4c801-1
gnome-weather 44.0-1
gnu-netcat 0.7.1-9
gparted 1.5.0-1
grilo-plugins 1:0.3.16-1
grim 1.4.0-3
grub 2:2.06.r499.ge67a551a4-1
gsfonts 20200910-3
gst-libav 1.22.3-2
gst-plugin-pipewire 1:0.3.71-1
gst-plugins-ugly 1.22.3-2
gutenprint 5.3.4-2
gvfs 1.50.4-3
gvfs-afc 1.50.4-3
gvfs-goa 1.50.4-3
gvfs-google 1.50.4-3
gvfs-gphoto2 1.50.4-3
gvfs-mtp 1.50.4-3
gvfs-nfs 1.50.4-3
gvfs-smb 1.50.4-3
helix 23.05-1
hexter 1.1.1-2
htop 3.2.2-1
hwinfo 22.2-2
inetutils 2.4-1
inkscape 1.2.2-7
inotify-tools 3.22.6.0-2
intel-ucode 20230516.a-1
inxi 3.3.27.1-1
iwd 2.5-1
jfsutils 1.1.15-8
keepassxc 2.7.5-2
keyserver-rank 1.2.4-1
kitty 0.28.1-2
kitty-shell-integration 0.28.1-2
kotlin 1.8.21-1
libdvdcss 1.4.3-1
libgsf 1.14.50-1
libopenraw 0.3.5-1
libreoffice-fresh 7.5.3-2
libtool 2.4.7+4+g1ec8fa28-3
libwnck3 43.0-3
lightdm 1:1.32.0-4
lightdm-gtk-greeter 1:2.0.8-3
lightdm-gtk-greeter-settings 1.2.2-8
linux 6.3.5.arch1-1
linux-atm 2.5.2-8
linux-firmware 20230404.2e92a49f-1
linux-headers 6.3.5.arch1-1
linux-lts 6.1.31-1
logrotate 3.21.0-2
lsd 0.23.1-2
lvm2 2.03.21-1
m4 1.4.19-3
make 4.4.1-2
mako 1.7.1-3
malcontent 0.11.1-2
man-db 2.11.2-1
man-pages 6.04-1
marco 1.26.2-2
mate-applets 1.26.1-1
mate-backgrounds 1.26.0-1
mate-calc 1.26.0-1
mate-control-center 1.26.0-3
mate-desktop 1.26.1-1
mate-icon-theme 1.26.0-1
mate-icon-theme-faenza 1.20.0-2
mate-media 1.26.0-1
mate-menus 1.26.0-1
mate-netbook 1.26.0-1
mate-notification-daemon 1.26.0-1
mate-panel 1.26.3-1
mate-polkit 1.26.1-1
mate-power-manager 1.26.0-1
mate-screensaver 1.26.1-1
mate-sensors-applet 1.26.0-1
mate-session-manager 1.26.0-1
mate-settings-daemon 1.26.0-1
mate-system-monitor 1.26.0-1
mate-terminal 1.26.1-1
mate-themes 3.22.23-1
mate-user-share 1.26.0-1
mate-utils 1.26.0-1
mdadm 4.2-2
meld 3.22.0-2
mkinitcpio 36-1
mkinitcpio-busybox 1.35.0-1
mkinitcpio-nfs-utils 0.3-8
mkinitcpio-openswap 0.1.0-3
mlocate 0.26.git.20170220-7
modemmanager 1.20.6-1
mousepad 0.6.1-2
mozo 1.27.0-2
mtools 1:4.0.43-1
mutter 44.1+r2+g82bd40dcbc-1
nano 7.2-1
nautilus 44.2-1
ncdu 2.2.2-2
ndisc6 1.0.7-1
nemo 5.6.5-1
neofetch 7.1.0-2
net-tools 2.10-2
netctl 1.28-2
network-manager-applet 1.32.0-2
networkmanager 1.42.6-1
networkmanager-openvpn 1.10.2-1
nnn 4.8-1
notepadqq 2.0.0beta-1
noto-fonts 20230501-1
noto-fonts-emoji 20220920-1
npm 8.19.2-2
nss-mdns 0.15.1-1
ntfs-3g 2022.10.3-1
obsidian 1.3.4-1
openconnect 1:9.12-1
opendesktop-fonts 1.4.2-6
opendoas 6.8.2-1
orca 44.1-1
os-prober 1.81-1
p7zip 1:17.05-1
pacman-contrib 1.9.0-1
paprefs 1.2-1
paru 1.11.2-1
patch 2.7.6-10
pavucontrol 1:5.0+r61+gee77d86-2
perl 5.36.1-1
php 8.2.6-1
picom 10.2-1
pingus 0.7.6-27
pinta 2.1.1-1
pipewire-pulse 1:0.3.71-1
pluma 1.27.0-2
polkit-kde-agent 5.27.5-1
polybar 3.6.3-3
poppler-glib 23.05.0-1
pptpclient 1.10.0-3
pypy 7.3.11-1
python-pip 23.1.2-1
python-pipx 1.2.0-1
python-poetry 1.5.0-1
python-pyppeteer 1.0.2-4
python-pywal 3.3.0-8
qbittorrent 4.5.3-1
qpwgraph 0.4.2-1
qtile 0.22.1-4
qxmledit 0.9.18-1
ranger 1.9.3-9
refind 0.14.0.2-1
reflector 2021.11-7
reflector-simple 2023-2
reiserfsprogs 3.6.27-4
remmina 1:1.4.30-1
ristretto 0.13.1-1
river 0.2.4-1
rofi-calc 2.2.0-1
rofi-emoji 3.2.0-1
rofi-pass 2.0.2-2
rp-pppoe 3.15-2
rsync 3.2.7-4
ruby 3.0.5-1
rygel 1:0.42.3-1
s-nail 14.9.24-2
s-tui 1.1.4-6
scummvm 2.7.0-1
sddm 0.19.0-9
shellcheck 0.9.0-37
simple-scan 44.0-1
sl 5.05-4
slurp 1.4.0-1
smartmontools 7.3-1
sof-firmware 2.2.5-1
solid 5.106.0-1
speedtest-cli 2.1.3-6
splix 2.0.0-19
starship 1.14.2-1
steam-native-runtime 1.0.0.75-3
stow 2.3.1-3
sudo 1.9.13.p3-1
surfraw 2.3.0-3
sushi 44.2-1
swappy 1.5.1-1
sway 1:1.8.1-1
swaybg 1.2.0-1
sysfsutils 2.1.1-1
system-config-printer 1.5.18-2
telegram-desktop 4.8.1-3
terminator 2.1.3-3
texinfo 7.0.3-1
thunar 4.18.6-1
thunar-archive-plugin 0.5.1-1
thunar-media-tags-plugin 0.4.0-1
thunar-volman 4.18.0-1
tint2 17.0.2-3
tldr 3.2.0-1
tlp 1.5.0-6
tmux 3.3_a-3
torbrowser-launcher 0.3.6-2
totem 43.0-2
tracker3-miners 3.5.2-1
ttf-bitstream-vera 1.10-15
ttf-dejavu 2.37+18+g9b5d1b2f-3
ttf-firacode-nerd 3.0.1-1
ttf-hack-nerd 3.0.1-1
ttf-iosevka-nerd 3.0.1-1
ttf-jetbrains-mono-nerd 3.0.1-1
ttf-joypixels 7.0.0-1
ttf-liberation 2.1.5-1
ttf-nerd-fonts-symbols 3.0.1-1
ttf-opensans 1.101-2
ttf-proggyclean-nerd 3.0.1-1
tumbler 4.18.1-1
unrar 1:6.2.7-1
upower 1.90.0-4
usb_modeswitch 2.6.1-3
usbutils 015-2
vhs 0.4.0-1
vi 1:070224-6
virtualbox 7.0.8-2
vivaldi 6.0.2979.22-1
vivaldi-ffmpeg-codecs 110.0.5481.100-2
vlc 3.0.18-9
volumeicon 0.5.1-5
welcome 3.64-1
wget 1.21.4-1
which 2.21-6
whois 5.5.17-1
wine 8.9-1
winetricks 20220411-1
wireless-regdb 2023.05.03-1
wireless_tools 30.pre9-3
wmctrl 1.07-6
wofi 1.3-2
wvdial 1.61-8
xclip 0.13-3
xdg-user-dirs 0.18-1
xdg-user-dirs-gtk 0.11-1
xdg-utils 1.1.3+25+g8ae0263-1
xed 3.2.8-1
xf86-input-synaptics 1.9.2-1
xf86-video-fbdev 0.5.0-3
xf86-video-intel 1:2.99.917+923+gb74b67f0-1
xf86-video-vesa 2.6.0-1
xfce4-appfinder 4.18.0-1
xfce4-battery-plugin 1.1.5-1
xfce4-datetime-plugin 0.8.3-1
xfce4-mount-plugin 1.1.6-1
xfce4-netload-plugin 1.4.1-1
xfce4-panel 4.18.4-1
xfce4-power-manager 4.18.2-1
xfce4-pulseaudio-plugin 0.4.6-1
xfce4-screensaver 4.18.2-1
xfce4-screenshooter 1.10.4-1
xfce4-session 4.18.3-1
xfce4-settings 4.18.2-1
xfce4-taskmanager 1.5.5-1
xfce4-terminal 1.0.4-1
xfce4-wavelan-plugin 0.6.3-1
xfce4-weather-plugin 0.11.1-1
xfce4-whiskermenu-plugin 2.7.3-1
xfce4-xkb-plugin 0.8.3-1
xfconf 4.18.1-1
xfdesktop 4.18.1-1
xfsprogs 6.3.0-1
xfwm4 4.18.0-1
xfwm4-themes 4.10.0-4
xl2tpd 1.3.18-1
xmonad 0.17.1-93
xmonad-contrib 0.17.1-92
xmonad-utils 0.1.3.3-227
xonsh 0.13.4-2
xorg-server 21.1.8-1
xorg-xdpyinfo 1.3.4-1
xorg-xinit 1.4.2-1
xorg-xinput 1.6.4-1
xorg-xkill 1.0.6-1
xorg-xrandr 1.5.2-1
xorg-xsetroot 1.1.3-1
xorg-xwininfo 1.1.6-1
xscreensaver 6.06-1
xterm 381-1
yad 12.3-1.1
zathura 0.5.2-2
